<?xml version="1.0" encoding="utf-8"?>
<!-- Generator: Adobe Illustrator 16.0.0, SVG Export Plug-In . SVG Version: 6.00 Build 0)  -->
<!DOCTYPE svg PUBLIC "-//W3C//DTD SVG 1.1//EN" "http://www.w3.org/Graphics/SVG/1.1/DTD/svg11.dtd">
<svg version="1.1" id="Calque_1" xmlns="http://www.w3.org/2000/svg" xmlns:xlink="http://www.w3.org/1999/xlink" x="0px" y="0px"
	 width="500px" height="500px" viewBox="0 0 500 500" enable-background="new 0 0 500 500" xml:space="preserve">
<g>
	<path d="M160.176,60.379c-2.553,0-5.107,0.977-7.057,2.926c-3.9,3.879-3.9,10.215,0,14.113l172.59,172.592l-172.59,172.59
		c-3.9,3.899-3.9,10.235,0,14.114c3.879,3.898,10.213,3.898,14.113,0l179.658-179.668c3.889-3.879,3.889-10.214,0-14.113
		L167.232,63.266c-1.969-1.949-4.521-2.904-7.076-2.904L160.176,60.379z"/>
</g>
</svg>
