<?xml version="1.0" encoding="utf-8"?>
<!-- Generator: Adobe Illustrator 19.1.0, SVG Export Plug-In . SVG Version: 6.00 Build 0)  -->
<svg version="1.1" id="Calque_1" xmlns="http://www.w3.org/2000/svg" xmlns:xlink="http://www.w3.org/1999/xlink" x="0px" y="0px"
	 width="500px" height="500px" viewBox="0 0 500 500" style="enable-background:new 0 0 500 500;" xml:space="preserve">
<g>
	<g>
		<path fill="#010002" d="M498.263,393.636c1.054,8.067-1.404,15.084-7.365,21.047l-69.978,69.446
			c-3.156,3.509-7.277,6.491-12.362,8.945c-5.086,2.456-10.084,4.033-14.993,4.734c-0.351,0-1.404,0.091-3.16,0.266
			c-1.751,0.175-4.031,0.264-6.837,0.264c-6.665,0-17.453-1.14-32.36-3.421s-33.146-7.895-54.716-16.836
			c-21.575-8.945-46.04-22.362-73.398-40.249c-27.358-17.887-56.472-42.441-87.339-73.66
			c-24.553-24.202-44.897-47.354-61.032-69.449c-16.135-22.099-29.113-42.529-38.934-61.296
			c-9.823-18.767-17.189-35.777-22.099-51.036c-4.911-15.258-8.243-28.411-9.997-39.46c-1.754-11.05-2.455-19.73-2.104-26.045
			c0.351-6.313,0.526-9.82,0.526-10.521c0.702-4.911,2.28-9.909,4.735-14.995c2.456-5.086,5.437-9.208,8.945-12.364L85.771,9.028
			c4.91-4.911,10.522-7.366,16.836-7.366c4.56,0,8.594,1.315,12.102,3.946c3.507,2.63,6.489,5.875,8.944,9.733l56.297,106.807
			c3.157,5.611,4.034,11.75,2.63,18.414c-1.402,6.665-4.384,12.276-8.944,16.836l-25.781,25.782c-0.701,0.7-1.315,1.841-1.841,3.419
			c-0.526,1.579-0.79,2.895-0.79,3.946c1.404,7.366,4.56,15.784,9.471,25.255c4.209,8.418,10.698,18.678,19.467,30.779
			c8.769,12.101,21.221,26.044,37.355,41.826c15.785,16.139,29.815,28.675,42.091,37.622c12.273,8.939,22.537,15.52,30.78,19.729
			c8.243,4.209,14.557,6.751,18.939,7.625l6.575,1.316c0.701,0,1.845-0.263,3.422-0.789c1.577-0.527,2.717-1.14,3.42-1.842
			l29.989-30.516c6.316-5.613,13.68-8.417,22.099-8.417c5.965,0,10.697,1.05,14.204,3.155h0.526l101.544,59.981
			C492.476,380.834,496.86,386.62,498.263,393.636z"/>
	</g>
</g>
</svg>
